[
  {
    "title": "Air Floor",
    "description": "Air Floor",
    "thumbnail": "https://drive.google.com/uc?export=download&id=1QCXRUp6brbj5zEFt8ldo-Kg5Bdf-CKZk",
    "videos": [
      {
        "id": 1101558,
        "title": "Back Handspring Back Tuck on Air Floor Male",
        "size": 723288,
        "duration": 9,
        "video": "https://drive.google.com/uc?export=download&id=1NyJeCNCGAw9IBR79DGAt5JAHP0LjvWrV",
        "thumbnail": "https://drive.google.com/uc?export=download&id=1jmGhKL6pO-uqZ7OmLnynBZLw32XG_30N",
        "description": "Back Handspring Back Tuck on Air Floor Male"
      },
      {
        "id": 1686084,
        "title": "Back Walk Over on air floor Female",
        "size": 774134,
        "duration": 9,
        "video": "https://drive.google.com/uc?export=download&id=1xDUpde-UUfp7FY8tn9cwfPc6rYUZEyiM",
        "thumbnail": "https://drive.google.com/uc?export=download&id=1jFOTO19SyBKBgbi0sca-JV9WNLUohpIK",
        "description": "Back Walk Over on air floor Female"
      },
      {
        "id": 1529316,
        "title": "Back Walk Over on air Floor",
        "size": 774134,
        "duration": 9,
        "video": "https://drive.google.com/uc?export=download&id=1LavuqudmcYJdiM1iCEcK9NiWDgCXoSxk",
        "thumbnail": "https://drive.google.com/uc?export=download&id=1BNFmR1VU7yan4nKmIl_hxjDCRHMlEDhd",
        "description": "Back Walk Over on air Floor"
      },
      {
        "id": 1515447,
        "title": "Power Hurdle RO BHS Layout on Air Floor",
        "size": 737575,
        "duration": 9,
        "video": "https://drive.google.com/uc?export=download&id=1BMXVGJs_zUWVsNPTHyPtvH7BItBI8cUm",
        "thumbnail": "https://drive.google.com/uc?export=download&id=1gGIuqZYESofPKBPBm0qY7VDPU-KIKkul",
        "description": "Power Hurdle RO BHS Layout on Air Floor"
      },
      {
        "id": 1934961,
        "title": "Power Hurdle RO on air floor Male",
        "size": 681921,
        "duration": 8,
        "video": "https://drive.google.com/uc?export=download&id=1prXqFWdO1zPLn4mDLaGLxrXvAIQ4HVjY",
        "thumbnail": "https://drive.google.com/uc?export=download&id=1cT2PGaSCUAPc1mhf4f0CFeMVeS2yvEEY",
        "description": "Power Hurdle RO on air floor Male"
      },
      {
        "id": 1983175,
        "title": "Power hurdle Round off Back handspring back tuck on air floor",
        "size": 949679,
        "duration": 12,
        "video": "https://drive.google.com/uc?export=download&id=1FH-VjsqMl2QKDX1cPEwwngUdshbOFJmY",
        "thumbnail": "https://drive.google.com/uc?export=download&id=1xNwiWxCjGDhc7BXj-5kUf2XamMBpf5Lr",
        "description": "Power hurdle Round off Back handspring back tuck on air floor"
      },
      {
        "id": 1246500,
        "title": "Punch front on Air Floor Female",
        "size": 904617,
        "duration": 8,
        "video": "https://drive.google.com/uc?export=download&id=12UYHig9KhgP56rZL_28oFYc6mNGiYRVJ",
        "thumbnail": "https://drive.google.com/uc?export=download&id=1RHpTnLPxFQI9ztv_ewuHkfweJJM3hSSB",
        "description": "Punch front on Air Floor Female"
      },
      {
        "id": 1537447,
        "title": "Punch front on Air Floor",
        "size": 679309,
        "duration": 7,
        "video": "https://drive.google.com/uc?export=download&id=1ueBHY8tgWuvC4-NaxihkRKej3eMjG3X6",
        "thumbnail": "https://drive.google.com/uc?export=download&id=1ycRboSR3u9OwRKg4VtjuzdFq7uqRc3Ah",
        "description": "Punch front on Air Floor"
      },
      {
        "id": 1629364,
        "title": "Punch front Round off on Air Floor Male",
        "size": 817800,
        "duration": 9,
        "video": "https://drive.google.com/uc?export=download&id=1_b85NklJD18BZW6kzbMsIyD3e5x_AYBN",
        "thumbnail": "https://drive.google.com/uc?export=download&id=1E_bgLIZaDoXjtlNeF52Fd7E3jbMken4g",
        "description": "Punch front Round off on Air Floor Male"
      },
      {
        "id": 1469081,
        "title": "Punch front Round off on air floor Male",
        "size": 817800,
        "duration": 9,
        "video": "https://drive.google.com/uc?export=download&id=1h9MDW1ZHDbDNs3xRJmAe7fXdfgveJtvK",
        "thumbnail": "https://drive.google.com/uc?export=download&id=1gOkagm8KAonciJXLrDT9WFLsun3C0aGB",
        "description": "Punch front Round off on air floor Male"
      },
      {
        "id": 1462707,
        "title": "Punch front step out air Female",
        "size": 1786245,
        "duration": 18,
        "video": "https://drive.google.com/uc?export=download&id=16AIo6naTyPkiVl_-K-3FS9O0oH1RDtYq",
        "thumbnail": "https://drive.google.com/uc?export=download&id=1FW6-0inKxdoqIy877jz943LSIdaqJP-N",
        "description": "Punch front step out air Female"
      },
      {
        "id": 1773317,
        "title": "Punch front step out on Air Floor Female",
        "size": 1786245,
        "duration": 18,
        "video": "https://drive.google.com/uc?export=download&id=1xSyEoDzUNAxzW6NgKL28IjCnTZakQh4K",
        "thumbnail": "https://drive.google.com/uc?export=download&id=1H-ZHI3fIuQdGUnXBZ9OaopdPmDOoxeP9",
        "description": "Punch front step out on Air Floor Female"
      },
      {
        "id": 1228534,
        "title": "Punch front step out on Air Floor Male",
        "size": 2066316,
        "duration": 21,
        "video": "https://drive.google.com/uc?export=download&id=1zc1aVeL8AZrSCQMAQMzgiVwxFQ6tN0_g",
        "thumbnail": "https://drive.google.com/uc?export=download&id=1R2_86RhWab0Be9mxtZp14lFzVI7hANQK",
        "description": "Punch front step out on Air Floor Male"
      },
      {
        "id": 1394973,
        "title": "Punch front step out on air floor",
        "size": 1244605,
        "duration": 13,
        "video": "https://drive.google.com/uc?export=download&id=18DS8p67rb-dTxr9SbboXJCvCtvv_gbB6",
        "thumbnail": "https://drive.google.com/uc?export=download&id=130yCTZXDeE1z_X23lxMPnhXRSfzmIwAZ",
        "description": "Punch front step out on air floor"
      },
      {
        "id": 1812491,
        "title": "Punchfront on Air Floor",
        "size": 735656,
        "duration": 7,
        "video": "https://drive.google.com/uc?export=download&id=1u9pNDcrzo7gkWtvfBP6bw9WRFYSrHUKG",
        "thumbnail": "https://drive.google.com/uc?export=download&id=1EA2uW69BcO8clupPKaIaqEtheTn5q8MX",
        "description": "Punchfront on Air Floor"
      },
      {
        "id": 1849657,
        "title": "RO BHS BACK TUCK on air Floor Female",
        "size": 1177362,
        "duration": 10,
        "video": "https://drive.google.com/uc?export=download&id=1IM1JppDkCo5w99kn6Kui1J4BsRVKW319",
        "thumbnail": "https://drive.google.com/uc?export=download&id=18VLgy27QSNRRHEIJEOg-Vm3JGvkNM0zD",
        "description": "RO BHS BACK TUCK on air Floor Female"
      },
      {
        "id": 1267623,
        "title": "RO BHS full on air floor",
        "size": 649164,
        "duration": 8,
        "video": "https://drive.google.com/uc?export=download&id=1g67qHkyoLikIb9gXAB-HxYWwlWwmuXf_",
        "thumbnail": "https://drive.google.com/uc?export=download&id=1P9CccoLbwlWZ8f5MUbNv7lPfitqNITmL",
        "description": "RO BHS full on air floor"
      },
      {
        "id": 1420125,
        "title": "RO Bhs layout air",
        "size": 1448582,
        "duration": 15,
        "video": "https://drive.google.com/uc?export=download&id=1GVTSMAoQZpesAoikyyCBblRBQPuGrsCx",
        "thumbnail": "https://drive.google.com/uc?export=download&id=16qNlgpkRdGICkCdUWBDde4okGgtqOt3Z",
        "description": "RO Bhs layout air"
      },
      {
        "id": 1789815,
        "title": "RO BHS layout on air floor",
        "size": 1448582,
        "duration": 15,
        "video": "https://drive.google.com/uc?export=download&id=1wwbqi3yQoXDjbRfL5AxSBi-PgGd-W6OY",
        "thumbnail": "https://drive.google.com/uc?export=download&id=14LS_yAUfHTBiL6EnpZPzo1TAgjaIwpWk",
        "description": "RO BHS layout on air floor"
      },
      {
        "id": 1065958,
        "title": "Standing 2 BHS on Air Floor Male",
        "size": 720957,
        "duration": 9,
        "video": "https://drive.google.com/uc?export=download&id=10pHHMSrqWUxIofEWOEP1uU4dD3rTUvRJ",
        "thumbnail": "https://drive.google.com/uc?export=download&id=1nJCrcMqlYZtY5yQQ2hcTSKezYmDm9hcF",
        "description": "Standing 2 BHS on Air Floor Male"
      },
      {
        "id": 1189463,
        "title": "Standing BHS on Air Floor Male",
        "size": 735841,
        "duration": 8,
        "video": "https://drive.google.com/uc?export=download&id=1XckF9Q2lcQO2kSMhrDcB9GvMDiWQcbBI",
        "thumbnail": "https://drive.google.com/uc?export=download&id=1z8EwuRTS_kIRqfdjd8V2Xna7r_DHWvpr",
        "description": "Standing BHS on Air Floor Male"
      }
    ]
  },
  {
    "title": "Back & Front Walkover",
    "description": "Back & Front Walkover",
    "thumbnail": "https://drive.google.com/uc?export=download&id=1qDtgzfTfOqs8SNMS7BXimEU1Mxx-Opr7",
    "videos": [
      {
        "id": 1876856,
        "title": "Back walk over on air floor",
        "size": 774134,
        "duration": 9,
        "video": "https://drive.google.com/uc?export=download&id=1LAIJ03j97r7yqG9OdrAlQFuCCA39aJWf",
        "thumbnail": "https://drive.google.com/uc?export=download&id=1qDtgzfTfOqs8SNMS7BXimEU1Mxx-Opr7",
        "description": "Back walk over on air floor"
      },
      {
        "id": 1535695,
        "title": "Back walkover floor",
        "size": 692264,
        "duration": 7,
        "video": "https://drive.google.com/uc?export=download&id=1ZyAqh_0YC9TfrVD1_hYORliH8hKwZ0sr",
        "thumbnail": "https://drive.google.com/uc?export=download&id=1ZnVOBVQVnm6dasFW71mJO7X-4QpzYp5m",
        "description": "Back walkover floor"
      },
      {
        "id": 1371874,
        "title": "Front Walk Over Round Off Back HandSpring floor",
        "size": 841252,
        "duration": 8,
        "video": "https://drive.google.com/uc?export=download&id=1oe-z7olD1sJzQH0o_sG8G5yiwsLnkiXp",
        "thumbnail": "https://drive.google.com/uc?export=download&id=10-UDOtvuCXOY5g_ym65m6hld4iw8_B8g",
        "description": "Front Walk Over Round Off Back HandSpring floor"
      },
      {
        "id": 1123155,
        "title": "Front walkover floor",
        "size": 741571,
        "duration": 8,
        "video": "https://drive.google.com/uc?export=download&id=1ivAcwUqnRTpGL2N0ChkTQ7C7WpBrWSMu",
        "thumbnail": "https://drive.google.com/uc?export=download&id=1lNXk6MHYf9eYAMSK3Nm_glr4GmAuB9FR",
        "description": "Front walkover floor"
      }
    ]
  },
  {
    "title": "Cartwheel",
    "description": "Cartwheel",
    "thumbnail": "https://drive.google.com/uc?export=download&id=1AS45m0MT2mtBeSS6G0Kwo9jS-UfNXQLT",
    "videos": [
      {
        "id": 1787784,
        "title": "Cartwheel on floor",
        "size": 690405,
        "duration": 9,
        "video": "https://drive.google.com/uc?export=download&id=1YVB65q7OWgDj-Ue77i8FkE3loVS4e8cC",
        "thumbnail": "https://drive.google.com/uc?export=download&id=1AS45m0MT2mtBeSS6G0Kwo9jS-UfNXQLT",
        "description": "Cartwheel on floor"
      }
    ]
  },
  {
    "title": "Full Twisting Layout",
    "description": "Full Twisting Layout",
    "thumbnail": "https://drive.google.com/uc?export=download&id=1D-3PUDcF_9XycGZfrD0jg0PvM7p9lX_J",
    "videos": [
      {
        "id": 1618276,
        "title": "Round off Back Handspring Full on Air Floor",
        "size": 649164,
        "duration": 8,
        "video": "https://drive.google.com/uc?export=download&id=1iOnJqgOLsJIxYJ7PGgCJiMz7cOxSdHu2",
        "thumbnail": "https://drive.google.com/uc?export=download&id=1D-3PUDcF_9XycGZfrD0jg0PvM7p9lX_J",
        "description": "Round off Back Handspring Full on Air Floor"
      },
      {
        "id": 1186268,
        "title": "Standing 2 Back Handspring full",
        "size": 837633,
        "duration": 9,
        "video": "https://drive.google.com/uc?export=download&id=12ZbZi91kttu8-gWqqw0SaMH9AZR6Q6bZ",
        "thumbnail": "https://drive.google.com/uc?export=download&id=1ZrXEmjVZpgEQ04QWJL5D8ebsZlemBRjZ",
        "description": "Standing 2 Back Handspring full"
      }
    ]
  },
  {
    "title": "Handspring",
    "description": "Handspring",
    "thumbnail": "https://drive.google.com/uc?export=download&id=1SEpt0i7MKutv481XRzNuv-g4bjIueljn",
    "videos": [
      {
        "id": 1683920,
        "title": "Back handspring floor",
        "size": 1097464,
        "duration": 11,
        "video": "https://drive.google.com/uc?export=download&id=15rU2WI7ZFpB-FN8equKCEOaIfX7Lklht",
        "thumbnail": "https://drive.google.com/uc?export=download&id=12TTP5yvzLFf33eMi0ik3M-WHGBDDoUwh",
        "description": "Back handspring floor"
      },
      {
        "id": 1420220,
        "title": "Lunge Round Off Back Handspring floor",
        "size": 687778,
        "duration": 8,
        "video": "https://drive.google.com/uc?export=download&id=12GB_3sP1iQDhyLC_JBFhoqyK29puBtjl",
        "thumbnail": "https://drive.google.com/uc?export=download&id=1j9svc4wTo3qd9ApqBH1J_1aO5WKoEMy_",
        "description": "Lunge Round Off Back Handspring floor"
      },
      {
        "id": 1156531,
        "title": "Lunge Round off Back Handspring on floor Male",
        "size": 617535,
        "duration": 7,
        "video": "https://drive.google.com/uc?export=download&id=1JiZOj7a7qoaMiopVsi43VzZrrNKDnuoi",
        "thumbnail": "https://drive.google.com/uc?export=download&id=14FL8fENyvZBvBXnsvfbXVrYUnh65xVRP",
        "description": "Lunge Round off Back Handspring on floor Male"
      },
      {
        "id": 1703833,
        "title": "Power hurdle Round off 2 Back Handspring floor Male",
        "size": 670714,
        "duration": 6,
        "video": "https://drive.google.com/uc?export=download&id=1T-WpfJxvlOoThpZ32byqZiLeP0gN4R7r",
        "thumbnail": "https://drive.google.com/uc?export=download&id=1ESw84b8xJRjKnyld2VMAOPtJE9kk9eRr",
        "description": "Power hurdle Round off 2 Back Handspring floor Male"
      },
      {
        "id": 1250259,
        "title": "Power hurdle Round off Back Handspring back Tuck floor",
        "size": 897654,
        "duration": 9,
        "video": "https://drive.google.com/uc?export=download&id=1TswACGsd9oA07VmbFFQvVv6xt6XQYofH",
        "thumbnail": "https://drive.google.com/uc?export=download&id=1uCCYCgsnB1nwS6ONJizrDr3kiW0KKgQM",
        "description": "Power hurdle Round off Back Handspring back Tuck floor"
      },
      {
        "id": 1228619,
        "title": "Power hurdle Round off Back Handspring on floor Male",
        "size": 888780,
        "duration": 9,
        "video": "https://drive.google.com/uc?export=download&id=1xAVlqauJBO0W2i4j07SJ-5oeU_LEEa1h",
        "thumbnail": "https://drive.google.com/uc?export=download&id=1L2_NoQ-Bd7z_XVATb8rbqNy06VHH0zYC",
        "description": "Power hurdle Round off Back Handspring on floor Male"
      },
      {
        "id": 1822145,
        "title": "Power hurdle Round off BHS floor",
        "size": 918341,
        "duration": 11,
        "video": "https://drive.google.com/uc?export=download&id=1C6nuXE0QINSpcj0opfPiOJceaWHpJEp8",
        "thumbnail": "https://drive.google.com/uc?export=download&id=1g5WCv44an2GOIverrsGd9rxDeUrY1h13",
        "description": "Power hurdle Round off BHS floor"
      },
      {
        "id": 1684521,
        "title": "Round off 2 Back Handsprings on floor",
        "size": 865741,
        "duration": 9,
        "video": "https://drive.google.com/uc?export=download&id=11vfgvU9uOBI_Cr1VoTdDQyitrnjnESND",
        "thumbnail": "https://drive.google.com/uc?export=download&id=1FqdnkIOtW1l4hOqHpyf9G5MD8hJSg4fx",
        "description": "Round off 2 Back Handsprings on floor"
      },
      {
        "id": 1495528,
        "title": "Standing Back Handspring on floor Male",
        "size": 948931,
        "duration": 9,
        "video": "https://drive.google.com/uc?export=download&id=1GT_uDBvk9tYZVH4pBF1COxt2ynUDvdWr",
        "thumbnail": "https://drive.google.com/uc?export=download&id=1CPiitK2mtSH-cyieyRzUVdSJ1MaZuJlp",
        "description": "Standing Back Handspring on floor Male"
      }
    ]
  },
  {
    "title": "Incline",
    "description": "Incline",
    "thumbnail": "https://drive.google.com/uc?export=download&id=1kIRyPaaNHZkRSEZ4XYSvbrdwu99nfHQ8",
    "videos": [
      {
        "id": 1161966,
        "title": "Back handspring back Tuck on Incline",
        "size": 1232820,
        "duration": 12,
        "video": "https://drive.google.com/uc?export=download&id=1mPgea3wYtE6W4Bxz5qiLyLSQc4qLbfTl",
        "thumbnail": "https://drive.google.com/uc?export=download&id=1K4TtMJN-ma6y2JWN2w_-Jt-8CX7TThSR",
        "description": "Back handspring back Tuck on Incline"
      },
      {
        "id": 1441909,
        "title": "Bridge kick over on Incline",
        "size": 762399,
        "duration": 6,
        "video": "https://drive.google.com/uc?export=download&id=1W5MDgK6WItZIIf-yb9kRqccftD032Tly",
        "thumbnail": "https://drive.google.com/uc?export=download&id=1giUJMP9dJOlZ9leKJKpQtSO661GfhPqS",
        "description": "Bridge kick over on Incline"
      },
      {
        "id": 1669682,
        "title": "Fall to bridge on Incline",
        "size": 1567147,
        "duration": 15,
        "video": "https://drive.google.com/uc?export=download&id=1YHBHy1LjVef1WEk_sXZ05f36mSFnTu0P",
        "thumbnail": "https://drive.google.com/uc?export=download&id=1tLXrXr5vs5cRM6GdQvhINHUrSfUPog7e",
        "description": "Fall to bridge on Incline"
      },
      {
        "id": 1909939,
        "title": "Fall to bridge wedge",
        "size": 1567147,
        "duration": 15,
        "video": "https://drive.google.com/uc?export=download&id=1ogSDq197lBeVVrerCPyA_OrvQjK-IuXz",
        "thumbnail": "https://drive.google.com/uc?export=download&id=1KOzl9WrpTDN-nMAR2SAL_G1vtPUEDkvG",
        "description": "Fall to bridge wedge"
      },
      {
        "id": 1821123,
        "title": "Handstand Back Handspring Female",
        "size": 1211614,
        "duration": 11,
        "video": "https://drive.google.com/uc?export=download&id=17JI_QPw6vHAi9ZYKp0jcw5EviaimxU_2",
        "thumbnail": "https://drive.google.com/uc?export=download&id=1vFSAwr41Ip55uaGFuCFiV4aLCbSUOw4m",
        "description": "Handstand Back Handspring Female"
      },
      {
        "id": 1205199,
        "title": "Handstand Back handspring on Incline Female",
        "size": 1211614,
        "duration": 11,
        "video": "https://drive.google.com/uc?export=download&id=16j9AQtILCAaqoshTM6EY6jNMUZnNU2oo",
        "thumbnail": "https://drive.google.com/uc?export=download&id=1GzgNNEGTIEKHh78pnXTmFYPYbdEItzjB",
        "description": "Handstand Back handspring on Incline Female"
      },
      {
        "id": 1034748,
        "title": "Handstand Bhs wedge",
        "size": 1271297,
        "duration": 11,
        "video": "https://drive.google.com/uc?export=download&id=1ABKsHknb68fw0sqsWc-Ky3hKziFQaS56",
        "thumbnail": "https://drive.google.com/uc?export=download&id=1Jj0nb2RdAQU4YKT9kAi0zCMNegMCFS5t",
        "description": "Handstand Bhs wedge"
      }
    ]
  },
  {
    "title": "Spring floor",
    "description": "Spring floor",
    "thumbnail": "https://drive.google.com/uc?export=download&id=1dbVywOM2nM5lfRrkz68BYIAWDvbMhmz0",
    "videos": [
      {
        "id": 1871962,
        "title": "Front Walk Over Round off Back Handspring floor",
        "size": 841252,
        "duration": 8,
        "video": "https://drive.google.com/uc?export=download&id=1JSysvv0I7hSC1GZg3CKUYZM7ABnbEhxk",
        "thumbnail": "https://drive.google.com/uc?export=download&id=1eaRINLotdNkjkXZLPrEn0Blcjqh2asXJ",
        "description": "Front Walk Over Round off Back Handspring floor"
      },
      {
        "id": 1838007,
        "title": "Front Walk Over Round off Back Handspring on floor",
        "size": 841252,
        "duration": 8,
        "video": "https://drive.google.com/uc?export=download&id=1dmCrcOis1t-COtSwcDYyLY1apzhCZACW",
        "thumbnail": "https://drive.google.com/uc?export=download&id=1RcYgKeJZJA4m6n0IQpFVDl3cwgIp8jcg",
        "description": "Front Walk Over Round off Back Handspring on floor"
      },
      {
        "id": 1875468,
        "title": "Lunge Round off on floor Male",
        "size": 538450,
        "duration": 7,
        "video": "https://drive.google.com/uc?export=download&id=1-TIeCTy-wyBr5MOHmcuuJt194IXKWX8E",
        "thumbnail": "https://drive.google.com/uc?export=download&id=1WxsP8zlDH6dHSGGJ9vRVJhRqOSxbbEBr",
        "description": "Lunge Round off on floor Male"
      },
      {
        "id": 1175885,
        "title": "Power hurdle RO floor boy",
        "size": 692458,
        "duration": 8,
        "video": "https://drive.google.com/uc?export=download&id=1MmQ66WrZy9fCxW0IKeXxDMlt95rMf_RD",
        "thumbnail": "https://drive.google.com/uc?export=download&id=1fNnvhgy4mwGTzlX5NXg5lIv6Jj7rDcs6",
        "description": "Power hurdle RO floor boy"
      },
      {
        "id": 1957849,
        "title": "Power hurdle Round off on floor Male",
        "size": 692458,
        "duration": 8,
        "video": "https://drive.google.com/uc?export=download&id=1DVmRB8TwjtESFepjWTRELMvI_l6arCRp",
        "thumbnail": "https://drive.google.com/uc?export=download&id=1clwlrTmnnP4nXFERioGGBfZE8HSoL5Rg",
        "description": "Power hurdle Round off on floor Male"
      },
      {
        "id": 1630844,
        "title": "RO BHS back floor boy",
        "size": 3881226,
        "duration": 39,
        "video": "https://drive.google.com/uc?export=download&id=1Dn4KiADinVAihKvlfwfKmMrzXJRaZ6UK",
        "thumbnail": "https://drive.google.com/uc?export=download&id=1y9vPBPVqukp0yvZP2PeiNp8TxhcWeX6D",
        "description": "RO BHS back floor boy"
      },
      {
        "id": 1156336,
        "title": "RO BHS layout",
        "size": 968229,
        "duration": 10,
        "video": "https://drive.google.com/uc?export=download&id=15iHoY2PHtd4rHZmwggtNG3tFgpNXmWvD",
        "thumbnail": "https://drive.google.com/uc?export=download&id=1cVmH-jzW5ggJh1by0lOZOXZ66qIQBE8K",
        "description": "RO BHS layout"
      },
      {
        "id": 1275396,
        "title": "Standing 2 BHS layout",
        "size": 736640,
        "duration": 8,
        "video": "https://drive.google.com/uc?export=download&id=1CUN00Nd9ddbws4ITpdPWBboi8YygEIbt",
        "thumbnail": "https://drive.google.com/uc?export=download&id=1nJrix7E0njdzl2P3n8RDe1WS-VvXjzaA",
        "description": "Standing 2 BHS layout"
      },
      {
        "id": 1685140,
        "title": "Standing BHS back floor boy",
        "size": 695148,
        "duration": 8,
        "video": "https://drive.google.com/uc?export=download&id=15zUuwhWk7GMQpBYo8OX7tf6SYYfdsSiE",
        "thumbnail": "https://drive.google.com/uc?export=download&id=1_IyzsKfTzjkFm33XV-QAQcexRd2Y8u3G",
        "description": "Standing BHS back floor boy"
      },
      {
        "id": 1577026,
        "title": "Step hurdle 2 BHS floor boy",
        "size": 934292,
        "duration": 9,
        "video": "https://drive.google.com/uc?export=download&id=10s4XCYB6Dswc5hC8Ky0WbxttfcCyI9VN",
        "thumbnail": "https://drive.google.com/uc?export=download&id=1aqBeSv8Ixt_zwpmu45GtSctlFusvKK0m",
        "description": "Step hurdle 2 BHS floor boy"
      },
      {
        "id": 1670074,
        "title": "Step hurdle RO BHS back floor",
        "size": 1039110,
        "duration": 11,
        "video": "https://drive.google.com/uc?export=download&id=19-u5ygRR-Apnf4SkvxH-W-LXKQBfhzm-",
        "thumbnail": "https://drive.google.com/uc?export=download&id=1l8qSv1YonHoLDw5wSaV007ag9TvGyIrf",
        "description": "Step hurdle RO BHS back floor"
      },
      {
        "id": 1562701,
        "title": "Step hurdle RO BHS floor boy",
        "size": 848672,
        "duration": 9,
        "video": "https://drive.google.com/uc?export=download&id=10yMbKR_2h1wG0vBgp6F7MZwFVXp-BdUp",
        "thumbnail": "https://drive.google.com/uc?export=download&id=1aRrdqBGradzOw8UTSYyq7F0brRd4fz9D",
        "description": "Step hurdle RO BHS floor boy"
      },
      {
        "id": 1469431,
        "title": "Step hurdle RO BHS floor",
        "size": 786243,
        "duration": 9,
        "video": "https://drive.google.com/uc?export=download&id=13Kyz6sc1vEyqOeBpr7RmZ7TJxhyJEKWf",
        "thumbnail": "https://drive.google.com/uc?export=download&id=159SRNKOYRGK8FOQbk72G207KW8Lh0Gym",
        "description": "Step hurdle RO BHS floor"
      }
    ]
  },
  {
    "title": "Tic Toc, Kickover, Bridge & Backbend",
    "description": "Tic Toc, Kickover, Bridge & Backbend",
    "thumbnail": "https://drive.google.com/uc?export=download&id=19KBvu4J-OqhiLZHy2HvL0h4OUgxjj7s4",
    "videos": [
      {
        "id": 1851113,
        "title": "Bridge kick over floor",
        "size": 911215,
        "duration": 7,
        "video": "https://drive.google.com/uc?export=download&id=1yrdnrw_wSPVJRMwgJRfaKT4EnMGlZbSL",
        "thumbnail": "https://drive.google.com/uc?export=download&id=19KBvu4J-OqhiLZHy2HvL0h4OUgxjj7s4",
        "description": "Bridge kick over floor"
      },
      {
        "id": 1537472,
        "title": "Fall to bridge floor",
        "size": 814181,
        "duration": 10,
        "video": "https://drive.google.com/uc?export=download&id=1uH7F532vCsRgrlsEWKKfpQ12Rx-2wIwg",
        "thumbnail": "https://drive.google.com/uc?export=download&id=1O6dS0l5GkOE_qZJRiJwXKzD0hiqr1QOi",
        "description": "Fall to bridge floor"
      }
    ]
  },
  {
    "title": "Tuck",
    "description": "Tuck",
    "thumbnail": "https://drive.google.com/uc?export=download&id=1Ptx7wIXlqrfAUX_tQM-fhtCgJYkXPBLl",
    "videos": [
      {
        "id": 1880980,
        "title": "BHS Back Tuck on Air Floor Male",
        "size": 723288,
        "duration": 9,
        "video": "https://drive.google.com/uc?export=download&id=1q8PuA1hzJseWifJrPNsHyV56Efcm7z7u",
        "thumbnail": "https://drive.google.com/uc?export=download&id=1sZE166DsZVB7AwZ6C8mgOOhoQ7d7Gtb8",
        "description": "BHS Back Tuck on Air Floor Male"
      },
      {
        "id": 1813520,
        "title": "Punch front floor",
        "size": 715028,
        "duration": 8,
        "video": "https://drive.google.com/uc?export=download&id=1ZhN4iR9DaQmeK92FIb_JO0WgGz9FLHAD",
        "thumbnail": "https://drive.google.com/uc?export=download&id=1zd27Xd925ASmhuMXq2Hu5Vrv84efZ5iP",
        "description": "Punch front floor"
      },
      {
        "id": 1683057,
        "title": "Punch Front Male",
        "size": 696050,
        "duration": 8,
        "video": "https://drive.google.com/uc?export=download&id=1PDBPwax0_eSdU5SSRxRR91GNwunmG7zU",
        "thumbnail": "https://drive.google.com/uc?export=download&id=1NMCEhh3gRo5oZB4bMFZuR4RjP4IlfZCh",
        "description": "Punch Front Male"
      },
      {
        "id": 1420484,
        "title": "Punch front RO on air Floor Male",
        "size": 817800,
        "duration": 9,
        "video": "https://drive.google.com/uc?export=download&id=19wieAU0gbEJjBgWk9HYYsCZgnSpTjgPk",
        "thumbnail": "https://drive.google.com/uc?export=download&id=1ga9WZC_1elatXm-xlgabSU3Dt0tMUMqK",
        "description": "Punch front RO on air Floor Male"
      }
    ]
  },
  {
    "title": "Tumble track",
    "description": "Tumble track",
    "thumbnail": "https://drive.google.com/uc?export=download&id=1VmaSwZ6dJGxXkmiplFTIQgB-pTgD2WGd",
    "videos": [
      {
        "id": 1797244,
        "title": "2 Bhs track girl",
        "size": 1278946,
        "duration": 9,
        "video": "https://drive.google.com/uc?export=download&id=1sNWTPJRt1cc8MTcHGmkg-5vEiLYRxABQ",
        "thumbnail": "https://drive.google.com/uc?export=download&id=1JLSUZWXfNS9nR9_-mtjBOCWzMh9_h1Lb",
        "description": "2 Bhs track girl"
      },
      {
        "id": 1427357,
        "title": "2 Bhs track",
        "size": 980911,
        "duration": 10,
        "video": "https://drive.google.com/uc?export=download&id=1Hu_I9u55AsOt5dMvehis-_aUNrDSkqIK",
        "thumbnail": "https://drive.google.com/uc?export=download&id=1KGp6yXLZGECsdEai3pfVnk0POovJ8JRy",
        "description": "2 Bhs track"
      },
      {
        "id": 1034564,
        "title": "Bhs back track girl",
        "size": 1074707,
        "duration": 10,
        "video": "https://drive.google.com/uc?export=download&id=1nU98ZRqoQHzkcIncuRCRBVjFpKI0WAPS",
        "thumbnail": "https://drive.google.com/uc?export=download&id=1jPN0MafisO4ofF4B_DxZQBCpvp8jHVKY",
        "description": "Bhs back track girl"
      },
      {
        "id": 1368584,
        "title": "Bhs back track",
        "size": 856942,
        "duration": 9,
        "video": "https://drive.google.com/uc?export=download&id=1NPOjMOOYWEX-aYZ38blt62jO_ZpiOb6E",
        "thumbnail": "https://drive.google.com/uc?export=download&id=1jPN0MafisO4ofF4B_DxZQBCpvp8jHVKY",
        "description": "Bhs back track"
      },
      {
        "id": 1514931,
        "title": "Bhs full track",
        "size": 1038607,
        "duration": 11,
        "video": "https://drive.google.com/uc?export=download&id=1oT8Gs1AINuuBa36b5olkMKEOMEahKAd5",
        "thumbnail": "https://drive.google.com/uc?export=download&id=1yGey12W-DCiOkKGLiMDyWOSOgT2moplH",
        "description": "Bhs full track"
      },
      {
        "id": 1018745,
        "title": "Bhs layout track girl",
        "size": 1338890,
        "duration": 12,
        "video": "https://drive.google.com/uc?export=download&id=1c6wjO-qPhDoq40drAHpRi3THwPIoE5eG",
        "thumbnail": "https://drive.google.com/uc?export=download&id=1JteGyhpRyBbnFgzjgpUyUzc7NZ96Gto1",
        "description": "Bhs layout track girl"
      },
      {
        "id": 1349155,
        "title": "Bhs layout track",
        "size": 1116706,
        "duration": 9,
        "video": "https://drive.google.com/uc?export=download&id=1UBcdmpaC8oywe-NG9tcDzwlUyDw22gV4",
        "thumbnail": "https://drive.google.com/uc?export=download&id=1QTNpnEH-us6LBOqbP7GY_AmfcocBvdvW",
        "description": "Bhs layout track"
      },
      {
        "id": 1495948,
        "title": "Bhs whip layout track",
        "size": 963778,
        "duration": 9,
        "video": "https://drive.google.com/uc?export=download&id=1y7WXMeq81sFeBiR6hW9OY-V8Rp6ze_Ad",
        "thumbnail": "https://drive.google.com/uc?export=download&id=1k7ba23jr7qY4cLgpvoMfAVzYNv5tzbRw",
        "description": "Bhs whip layout track"
      },
      {
        "id": 1508226,
        "title": "Front handspring track",
        "size": 1739654,
        "duration": 17,
        "video": "https://drive.google.com/uc?export=download&id=1T0WUwKtLtk-xIHYo2k3ZO_11yOOOByuI",
        "thumbnail": "https://drive.google.com/uc?export=download&id=1hFy5THVrch6grn8uZVgk1YB4M08uDSd_",
        "description": "Front handspring track"
      },
      {
        "id": 1834914,
        "title": "Front walkover track",
        "size": 1207903,
        "duration": 12,
        "video": "https://drive.google.com/uc?export=download&id=142YSRnkmaorkr8P6uVtHAzts9niS6EGy",
        "thumbnail": "https://drive.google.com/uc?export=download&id=1kk9kV-ZA3dYPkK3A5pAQaZROyZXUHYop",
        "description": "Front walkover track"
      },
      {
        "id": 1382964,
        "title": "Punch front track",
        "size": 652634,
        "duration": 7,
        "video": "https://drive.google.com/uc?export=download&id=1PxYVnQDEoAFM8PXpAp7YONFvnCgmWKLr",
        "thumbnail": "https://drive.google.com/uc?export=download&id=1bVNNYh5mz5t_QqeKArcPBGbyZM0DtSZr",
        "description": "Punch front track"
      },
      {
        "id": 1243172,
        "title": "Standing back track",
        "size": 1148902,
        "duration": 11,
        "video": "https://drive.google.com/uc?export=download&id=1bOngkSrCBn78x3sUw5KKJGyTIxSB-dW4",
        "thumbnail": "https://drive.google.com/uc?export=download&id=1jPgiYNxolovN6VGJY6lXq70e51IkeW0p",
        "description": "Standing back track"
      },
      {
        "id": 1497310,
        "title": "Standing Bhs track (1)",
        "size": 839900,
        "duration": 7,
        "video": "https://drive.google.com/uc?export=download&id=1-PFIU-lw_maPT0DIM4THF6teKLdlambM",
        "thumbnail": "https://drive.google.com/uc?export=download&id=1lJFuWdYNCReGYFkJA6cUQ5X7y1t1X9jV",
        "description": "Standing Bhs track (1)"
      },
      {
        "id": 1137121,
        "title": "Standing Bhs track Girl",
        "size": 1831997,
        "duration": 18,
        "video": "https://drive.google.com/uc?export=download&id=1R2T-iVwcfUgrOLZ37orxVgxnPV8IoOZk",
        "thumbnail": "https://drive.google.com/uc?export=download&id=19bpOYAoOdvbhop5QKRZdsA7zNmUC0WT2",
        "description": "Standing Bhs track Girl"
      },
      {
        "id": 1699472,
        "title": "Standing Bhs track",
        "size": 839900,
        "duration": 7,
        "video": "https://drive.google.com/uc?export=download&id=1sCaijzgDjMJoHPkU9atb9UYkpmKvE7ls",
        "thumbnail": "https://drive.google.com/uc?export=download&id=1c469Ch8viG0gHn53_zloFuaoLLMJ8v9o",
        "description": "Standing Bhs track"
      }
    ]
  }
]
